{
    "title": "MailChimp Widget",
    "version": "1.00",
    "name": "AsdMailChimp",
    "description": "MailChimp subscription widget",
    "author": "Simonas Dimavičius",
    "options": [
        {
            "label": "API key",
            "name": "apikey",
            "type": "text"
        }
    ]
}